…
정제된 변수들로만 구성된 데이터프레임 생성

``` r
welfare_ss <- welfare %>%
  filter(!is.na(income)) %>% 
  select(income,consult,help)
welfare_ss
```

    ## # A tibble: 2,936 x 3
    ##    income     consult        help          
    ##    <chr>      <chr>          <chr>         
    ##  1 1천 미만   친구,동료      친구,동료     
    ##  2 5천~7천5백 친구,동료      친구,동료     
    ##  3 5천~7천5백 친구,동료      이웃          
    ##  4 1천 미만   따로 사는 자녀 따로 사는 자녀
    ##  5 1천 미만   친구,동료      친구,동료     
    ##  6 1천 미만   친구,동료      친구,동료     
    ##  7 1천 미만   이웃           이웃          
    ##  8 1천 미만   친구,동료      친구,동료     
    ##  9 1천 미만   따로 사는 자녀 따로 사는 자녀
    ## 10 1천 미만   친구,동료      친구,동료     
    ## # ... with 2,926 more rows
…
### 3) 분석 및 해석

#### 소득분위별 걱정거리 상의대상 분석

``` r
welfare_consult<- welfare_ss %>%
  group_by(income,consult) %>% 
  summarise(n=n()) %>% 
  mutate(ratio=round(n/sum(n)*100,1)) %>% 
  select(income, consult, ratio)
welfare_consult
```

    ## # A tibble: 52 x 3
    ## # Groups:   income [6]
    ##    income   consult         ratio
    ##    <chr>    <chr>           <dbl>
    ##  1 1억 이상 기타            0.800
    ##  2 1억 이상 기타 친인척     5.80 
    ##  3 1억 이상 따로 사는 부모 19.0  
    ##  4 1억 이상 따로 사는 자녀  4.10 
    ##  5 1억 이상 상의할 곳 없음  5.80 
    ##  6 1억 이상 이웃            5.00 
    ##  7 1억 이상 전문상담가      1.70 
    ##  8 1억 이상 종교인          8.30 
    ##  9 1억 이상 친구,동료      49.6  
    ## 10 1천 미만 기타            0.800
    ## # ... with 42 more rows
…
